{
  "persons":{
    "Tomislav":
      {
        "Name":"Tomislav",
        "LastName": "Aščić",
        "DateOfBirth": "10.10.1994",
        "Adress": "Rudolfa Matza 8, 10360 Sesvete",
        "E-mail": "tomislav.ascic@fer.hr",
        "Mobile": "095/825-6481",
        "Skype": "tomislav.ascic",
        "Role" : "SAVJETNIK",
        "Skills":
          {
          "C#":"70%",
          "Java":"50%"
          }
          ,
        "Info" : "EEEE brate tu ćemo naklikat neki opis, sad nek vako malo stoji",
        "Education":
          {
            "Srednja" : "V.gimnazija, Zagreb",
            "Fakultet" : "FER, treća godina preddiplomskog studija"
          }
          ,
        "Experience":
          {
            "Job1": "Radnik u Ledo pogonu",
            "Job2": "Telesales out agent, HT"
          }
          
      }
      ,
    "Goran":
      {
       "Name":"",
        "LastName": "",
        "DateOfBirth": "",
        "Adress": "",
        "E-mail": "",
        "Mobile": "",
        "Skype": "",
        "Role" : "",
        "Skills":
          {
          "C#":"",
          "Java":""
          }
          ,
        "Info" : "",
        "Education":
          {
            "Srednja" : "",
            "Fakultet" : "FER, treća godina preddiplomskog studija"
          }
          ,
        "Experience":
          {
            "Job1": "",
            "Job2": ""
          }
          
      }
      ,
    "Ivan":
      {
       "Name":"",
        "LastName": "",
        "DateOfBirth": "",
        "Adress": "",
        "E-mail": "",
        "Mobile": "",
        "Skype": "",
        "Role" : "",
        "Skills":
          {
          "C#":"",
          "Java":""
          }
          ,
        "Info" : "",
        "Education":
          {
            "Srednja" : "",
            "Fakultet" : "FER, treća godina preddiplomskog studija"
          }
          ,
        "Experience":
          {
            "Job1": "",
            "Job2": ""
          }
          
      }
      ,
    "Kresimir":
      {
       "Name":"",
        "LastName": "",
        "DateOfBirth": "",
        "Adress": "",
        "E-mail": "",
        "Mobile": "",
        "Skype": "",
        "Role" : "",
        "Skills":
          {
          "C#":"",
          "Java":""
          }
          ,
        "Info" : "",
        "Education":
          {
            "Srednja" : "",
            "Fakultet" : "FER, treća godina preddiplomskog studija"
          }
          ,
        "Experience":
          {
            "Job1": "",
            "Job2": ""
          }
      }
  }
}
